^C:\PROJECTS\NONMONETARY\GETBSCROSSREF\RESOURCES\FIELDS.RESX
^C:\PROJECTS\NONMONETARY\GETBSCROSSREF\RESOURCES\LOGMESSAGES.RESX
C:\WINDOWS\MICROSOFT.NET\FRAMEWORK\V2.0.50727\CONFIG\SECURITY.CONFIG
C:\WINDOWS\MICROSOFT.NET\FRAMEWORK\V2.0.50727\CONFIG\ENTERPRISESEC.CONFIG
