^C:\PROJECTS\NONMONETARY\NONMONETARY\RESOURCES\EXCEPTIONMESSAGES.RESX
^C:\PROJECTS\NONMONETARY\NONMONETARY\RESOURCES\FIELDS.RESX
^C:\PROJECTS\NONMONETARY\NONMONETARY\RESOURCES\LOGMESSAGES.RESX
^C:\PROJECTS\NONMONETARY\NONMONETARY\RESOURCES\ATTRIBUTES.RESX
^C:\PROJECTS\NONMONETARY\NONMONETARY\RESOURCES\SQL.RESX
^C:\PROJECTS\NONMONETARY\NONMONETARY\RESOURCES\TEXT.RESX
^C:\PROJECTS\NONMONETARY\NONMONETARY\RESOURCES\XPATH.RESX
C:\WINDOWS\MICROSOFT.NET\FRAMEWORK\V2.0.50727\CONFIG\SECURITY.CONFIG
C:\WINDOWS\MICROSOFT.NET\FRAMEWORK\V2.0.50727\CONFIG\ENTERPRISESEC.CONFIG
^C:\BANCVUE\NONMONETARY\NONMONETARY\RESOURCES\EXCEPTIONMESSAGES.RESX
^C:\BANCVUE\NONMONETARY\NONMONETARY\RESOURCES\FIELDS.RESX
^C:\BANCVUE\NONMONETARY\NONMONETARY\RESOURCES\LOGMESSAGES.RESX
^C:\BANCVUE\NONMONETARY\NONMONETARY\RESOURCES\ATTRIBUTES.RESX
^C:\BANCVUE\NONMONETARY\NONMONETARY\RESOURCES\SQL.RESX
^C:\BANCVUE\NONMONETARY\NONMONETARY\RESOURCES\TEXT.RESX
^C:\BANCVUE\NONMONETARY\NONMONETARY\RESOURCES\XPATH.RESX
C:\WINDOWS\MICROSOFT.NET\FRAMEWORK64\V2.0.50727\CONFIG\SECURITY.CONFIG
C:\WINDOWS\MICROSOFT.NET\FRAMEWORK64\V2.0.50727\CONFIG\ENTERPRISESEC.CONFIG
